Presentation Ninja
…
---

### Tibbles

**Exemplo: base `mtcars` como `tibble`**

``` r
tibble::as_tibble(mtcars)
```

```
## # A tibble: 32 × 11
##      mpg   cyl  disp    hp  drat    wt  qsec    vs    am  gear  carb
##    <dbl> <dbl> <dbl> <dbl> <dbl> <dbl> <dbl> <dbl> <dbl> <dbl> <dbl>
##  1  21       6  160    110  3.9   2.62  16.5     0     1     4     4
##  2  21       6  160    110  3.9   2.88  17.0     0     1     4     4
##  3  22.8     4  108     93  3.85  2.32  18.6     1     1     4     1
##  4  21.4     6  258    110  3.08  3.22  19.4     1     0     3     1
##  5  18.7     8  360    175  3.15  3.44  17.0     0     0     3     2
##  6  18.1     6  225    105  2.76  3.46  20.2     1     0     3     1
##  7  14.3     8  360    245  3.21  3.57  15.8     0     0     3     4
##  8  24.4     4  147.    62  3.69  3.19  20       1     0     4     2
##  9  22.8     4  141.    95  3.92  3.15  22.9     1     0     4     2
## 10  19.2     6  168.   123  3.92  3.44  18.3     1     0     4     4
## # ℹ 22 more rows
```
…
---

### Tibbles

**Exemplo: base `mtcars` como `tibble`**

Uma maneira de **preservar os nomes dos modelos dos veículos** como coluna ao converter um `data.frame` em `tibble` é utilizar o argumento `rownames = "nome_da_coluna"` dentro da função `as_tibble()`. Assim, a nova `tibble` terá **12 colunas** — uma a mais que a anterior, pois agora os nomes dos modelos passam a fazer da base como uma variável explícita.

``` r
tibble::as_tibble(mtcars, rownames = "cars")
```

```
## # A tibble: 32 × 12
##    cars          mpg   cyl  disp    hp  drat    wt  qsec    vs    am  gear  carb
##    <chr>       <dbl> <dbl> <dbl> <dbl> <dbl> <dbl> <dbl> <dbl> <dbl> <dbl> <dbl>
##  1 Mazda RX4    21       6  160    110  3.9   2.62  16.5     0     1     4     4
##  2 Mazda RX4 …  21       6  160    110  3.9   2.88  17.0     0     1     4     4
##  3 Datsun 710   22.8     4  108     93  3.85  2.32  18.6     1     1     4     1
##  4 Hornet 4 D…  21.4     6  258    110  3.08  3.22  19.4     1     0     3     1
##  5 Hornet Spo…  18.7     8  360    175  3.15  3.44  17.0     0     0     3     2
##  6 Valiant      18.1     6  225    105  2.76  3.46  20.2     1     0     3     1
##  7 Duster 360   14.3     8  360    245  3.21  3.57  15.8     0     0     3     4
##  8 Merc 240D    24.4     4  147.    62  3.69  3.19  20       1     0     4     2
##  9 Merc 230     22.8     4  141.    95  3.92  3.15  22.9     1     0     4     2
## 10 Merc 280     19.2     6  168.   123  3.92  3.44  18.3     1     0     4     4
## # ℹ 22 more rows
```
…
pinguins_csv <- read_csv("dados/pinguins.csv")
```

---

### Importação de arquivos

O objeto resultante será um `tibble`:

``` r
pinguins_csv
```

```
## # A tibble: 344 × 8
##    species island    bill_length_mm bill_depth_mm flipper_length_mm body_mass_g
##    <chr>   <chr>              <dbl>         <dbl>             <dbl>       <dbl>
##  1 Adelie  Torgersen           39.1          18.7               181        3750
##  2 Adelie  Torgersen           39.5          17.4               186        3800
##  3 Adelie  Torgersen           40.3          18                 195        3250
##  4 Adelie  Torgersen           NA            NA                  NA          NA
##  5 Adelie  Torgersen           36.7          19.3               193        3450
##  6 Adelie  Torgersen           39.3          20.6               190        3650
##  7 Adelie  Torgersen           38.9          17.8               181        3625
##  8 Adelie  Torgersen           39.2          19.6               195        4675
##  9 Adelie  Torgersen           34.1          18.1               193        3475
## 10 Adelie  Torgersen           42            20.2               190        4250
## # ℹ 334 more rows
## # ℹ 2 more variables: sex <chr>, year <dbl>
```
…
A função `select()` é usada para escolher colunas específicas de uma base de dados.

- O **primeiro argumento** é o nome da base (ex: `pinguins`)

- Os **demais argumentos** são os nomes das colunas que você quer manter

_Não é necessário usar aspas para os nomes das colunas!_

``` r
select(pinguins, species)
```

```
## # A tibble: 344 × 1
##    species
##    <chr>  
##  1 Adelie 
##  2 Adelie 
##  3 Adelie 
##  4 Adelie 
##  5 Adelie 
##  6 Adelie 
##  7 Adelie 
##  8 Adelie 
##  9 Adelie 
## 10 Adelie 
## # ℹ 334 more rows
```

---

### Selecionando Colunas:  &nbsp; `select()`

Você também pode selecionar **várias colunas ao mesmo tempo**, separando os nomes por vírgulas:

``` r
select(pinguins, species, sex, body_mass_g)
```

```
## # A tibble: 344 × 3
##    species sex    body_mass_g
##    <chr>   <chr>        <dbl>
##  1 Adelie  male          3750
##  2 Adelie  female        3800
##  3 Adelie  female        3250
##  4 Adelie  <NA>            NA
##  5 Adelie  female        3450
##  6 Adelie  male          3650
##  7 Adelie  female        3625
##  8 Adelie  male          4675
##  9 Adelie  <NA>          3475
## 10 Adelie  <NA>          4250
## # ℹ 334 more rows
```

Esse exemplo retorna apenas as colunas `species`, `sex` e `body_mass_g` da base `pinguins`.

---

### Selecionando Colunas:  &nbsp; `select()`

O operador `:` é útil para selecionar **colunas consecutivas** — ou seja, de uma coluna até outra, seguindo a ordem da base:

``` r
select(pinguins, island:body_mass_g)
```

```
## # A tibble: 344 × 5
##    island    bill_length_mm bill_depth_mm flipper_length_mm body_mass_g
##    <chr>              <dbl>         <dbl>             <dbl>       <dbl>
##  1 Torgersen           39.1          18.7               181        3750
##  2 Torgersen           39.5          17.4               186        3800
##  3 Torgersen           40.3          18                 195        3250
##  4 Torgersen           NA            NA                  NA          NA
##  5 Torgersen           36.7          19.3               193        3450
##  6 Torgersen           39.3          20.6               190        3650
##  7 Torgersen           38.9          17.8               181        3625
##  8 Torgersen           39.2          19.6               195        4675
##  9 Torgersen           34.1          18.1               193        3475
## 10 Torgersen           42            20.2               190        4250
## # ℹ 334 more rows
```
…
O `{dplyr}` oferece algumas **funções auxiliares** muito úteis para selecionar colunas com base em partes do nome:

- `starts_with("texto")`: seleciona colunas que **começam** com o texto especificado

- `ends_with("texto")`: seleciona colunas que **terminam** com o texto especificado

- `contains("texto")`: seleciona colunas que **contêm** o texto especificado

``` r
select(pinguins, ends_with("mm"))
```

```
## # A tibble: 344 × 3
##    bill_length_mm bill_depth_mm flipper_length_mm
##             <dbl>         <dbl>             <dbl>
##  1           39.1          18.7               181
##  2           39.5          17.4               186
##  3           40.3          18                 195
##  4           NA            NA                  NA
##  5           36.7          19.3               193
##  6           39.3          20.6               190
##  7           38.9          17.8               181
##  8           39.2          19.6               195
##  9           34.1          18.1               193
## 10           42            20.2               190
## # ℹ 334 more rows
```

---

### Selecionando Colunas:  &nbsp; `select()`

Você pode **remover colunas** usando o sinal de menos (`—`) antes do nome da coluna:

``` r
select(pinguins, -year)
```

```
## # A tibble: 344 × 7
##    species island    bill_length_mm bill_depth_mm flipper_length_mm body_mass_g
##    <chr>   <chr>              <dbl>         <dbl>             <dbl>       <dbl>
##  1 Adelie  Torgersen           39.1          18.7               181        3750
##  2 Adelie  Torgersen           39.5          17.4               186        3800
##  3 Adelie  Torgersen           40.3          18                 195        3250
##  4 Adelie  Torgersen           NA            NA                  NA          NA
##  5 Adelie  Torgersen           36.7          19.3               193        3450
##  6 Adelie  Torgersen           39.3          20.6               190        3650
##  7 Adelie  Torgersen           38.9          17.8               181        3625
##  8 Adelie  Torgersen           39.2          19.6               195        4675
##  9 Adelie  Torgersen           34.1          18.1               193        3475
## 10 Adelie  Torgersen           42            20.2               190        4250
## # ℹ 334 more rows
## # ℹ 1 more variable: sex <chr>
```

Esse código retorna todas as colunas da base `pinguins`, exceto a coluna `year`.

---

### Selecionando Colunas:  &nbsp; `select()`

Para remover **mais de uma coluna**, basta usar o sinal de menos (`—`) junto com a função `c()`:

``` r
select(pinguins, -c(year, sex))
```

```
## # A tibble: 344 × 6
##    species island    bill_length_mm bill_depth_mm flipper_length_mm body_mass_g
##    <chr>   <chr>              <dbl>         <dbl>             <dbl>       <dbl>
##  1 Adelie  Torgersen           39.1          18.7               181        3750
##  2 Adelie  Torgersen           39.5          17.4               186        3800
##  3 Adelie  Torgersen           40.3          18                 195        3250
##  4 Adelie  Torgersen           NA            NA                  NA          NA
##  5 Adelie  Torgersen           36.7          19.3               193        3450
##  6 Adelie  Torgersen           39.3          20.6               190        3650
##  7 Adelie  Torgersen           38.9          17.8               181        3625
##  8 Adelie  Torgersen           39.2          19.6               195        4675
##  9 Adelie  Torgersen           34.1          18.1               193        3475
## 10 Adelie  Torgersen           42            20.2               190        4250
## # ℹ 334 more rows
```
…
A função `arrange()` serve para **ordenar as linhas** da base de dados.

- O **primeiro argumento** é a base (ex: `pinguins`)

- Os **demais argumentos** são as colunas usadas como critério de ordenação.

Por padrão, a ordenação é feita em ordem **crescente**.

``` r
arrange(pinguins, body_mass_g)
```

```
## # A tibble: 344 × 8
##    species   island   bill_length_mm bill_depth_mm flipper_length_mm body_mass_g
##    <chr>     <chr>             <dbl>         <dbl>             <dbl>       <dbl>
##  1 Chinstrap Dream              46.9          16.6               192        2700
##  2 Adelie    Biscoe             36.5          16.6               181        2850
##  3 Adelie    Biscoe             36.4          17.1               184        2850
##  4 Adelie    Biscoe             34.5          18.1               187        2900
##  5 Adelie    Dream              33.1          16.1               178        2900
##  6 Adelie    Torgers…           38.6          17                 188        2900
##  7 Chinstrap Dream              43.2          16.6               187        2900
##  8 Adelie    Biscoe             37.9          18.6               193        2925
##  9 Adelie    Dream              37.5          18.9               179        2975
## 10 Adelie    Dream              37            16.9               185        3000
## # ℹ 334 more rows
## # ℹ 2 more variables: sex <chr>, year <dbl>
```

---

### Ordenando linhas: &nbsp; `arrange()`

Para ordenar de forma **descrescente**, basta usar a função `desc()` dentro do `arrange()`.

No exemplo abaixo, os pinguins são organizados da **maior para a menor massa corporal**:

``` r
arrange(pinguins, desc(body_mass_g))
```

```
## # A tibble: 344 × 8
##    species island bill_length_mm bill_depth_mm flipper_length_mm body_mass_g
##    <chr>   <chr>           <dbl>         <dbl>             <dbl>       <dbl>
##  1 Gentoo  Biscoe           49.2          15.2               221        6300
##  2 Gentoo  Biscoe           59.6          17                 230        6050
##  3 Gentoo  Biscoe           51.1          16.3               220        6000
##  4 Gentoo  Biscoe           48.8          16.2               222        6000
##  5 Gentoo  Biscoe           45.2          16.4               223        5950
##  6 Gentoo  Biscoe           49.8          15.9               229        5950
##  7 Gentoo  Biscoe           48.4          14.6               213        5850
##  8 Gentoo  Biscoe           49.3          15.7               217        5850
##  9 Gentoo  Biscoe           55.1          16                 230        5850
## 10 Gentoo  Biscoe           49.5          16.2               229        5800
## # ℹ 334 more rows
## # ℹ 2 more variables: sex <chr>, year <dbl>
```
…
Você também pode ordenar por **duas ou mais colunas** ao mesmo tempo.

No exemplo abaixo, as linhas são ordenadas:

- **Primeiro** pelo **comprimento do bico** (`bill_length_mm`), em **ordem descrescente**

- **Depois**, em caso de empate, pela **profundidade do bico** (`bill_depth_mm`), em **ordem crescente**.

``` r
arrange(pinguins, desc(bill_length_mm), bill_depth_mm)
```

```
## # A tibble: 344 × 8
##    species   island bill_length_mm bill_depth_mm flipper_length_mm body_mass_g
##    <chr>     <chr>           <dbl>         <dbl>             <dbl>       <dbl>
##  1 Gentoo    Biscoe           59.6          17                 230        6050
##  2 Chinstrap Dream            58            17.8               181        3700
##  3 Gentoo    Biscoe           55.9          17                 228        5600
##  4 Chinstrap Dream            55.8          19.8               207        4000
##  5 Gentoo    Biscoe           55.1          16                 230        5850
##  6 Gentoo    Biscoe           54.3          15.7               231        5650
##  7 Chinstrap Dream            54.2          20.8               201        4300
##  8 Chinstrap Dream            53.5          19.9               205        4500
##  9 Gentoo    Biscoe           53.4          15.8               219        5500
## 10 Chinstrap Dream            52.8          20                 205        4550
## # ℹ 334 more rows
## # ℹ 2 more variables: sex <chr>, year <dbl>
```
…
---

### Filtrando linhas: &nbsp; `filter()`

A função `filter()` é usada para **selecionar linhas** que atendem a uma determinada condição.

No exemplo abaixo, são filtradas apenas as observações em que o **comprimento da nadadeira** (`flipper_length_mm`) é **maior que 140 mm**:

``` r
filter(pinguins, flipper_length_mm > 140)
```

```
## # A tibble: 342 × 8
##    species island    bill_length_mm bill_depth_mm flipper_length_mm body_mass_g
##    <chr>   <chr>              <dbl>         <dbl>             <dbl>       <dbl>
##  1 Adelie  Torgersen           39.1          18.7               181        3750
##  2 Adelie  Torgersen           39.5          17.4               186        3800
##  3 Adelie  Torgersen           40.3          18                 195        3250
##  4 Adelie  Torgersen           36.7          19.3               193        3450
##  5 Adelie  Torgersen           39.3          20.6               190        3650
##  6 Adelie  Torgersen           38.9          17.8               181        3625
##  7 Adelie  Torgersen           39.2          19.6               195        4675
##  8 Adelie  Torgersen           34.1          18.1               193        3475
##  9 Adelie  Torgersen           42            20.2               190        4250
## 10 Adelie  Torgersen           37.8          17.1               186        3300
## # ℹ 332 more rows
## # ℹ 2 more variables: sex <chr>, year <dbl>
```
…
No exemplo abaixo:

- Primeiro, selecionamos as colunas `species` e `flipper_length_mm`

- Depois, filtramos apenas os pinguins com **nadadeiras maiores que 140 mm**.

``` r
pinguins |> 
  select(species, flipper_length_mm) |>
  filter(flipper_length_mm > 140)
```

```
## # A tibble: 342 × 2
##    species flipper_length_mm
##    <chr>               <dbl>
##  1 Adelie                181
##  2 Adelie                186
##  3 Adelie                195
##  4 Adelie                193
##  5 Adelie                190
##  6 Adelie                181
##  7 Adelie                195
##  8 Adelie                193
##  9 Adelie                190
## 10 Adelie                186
## # ℹ 332 more rows
```
…
Você pode aplicar **dois ou mais filtros** ao mesmo tempo, separando as condições por vírgula dentro do `filter()`.

No exemplo abaixo, o código retorna apenas os pinguins que:

- Estão na ilha de **Torgersen**

- Têm **profundidade de bico maior que 15 mm**.

``` r
pinguins |> 
  filter(island == "Torgersen", bill_depth_mm > 15)
```

```
## # A tibble: 51 × 8
##    species island    bill_length_mm bill_depth_mm flipper_length_mm body_mass_g
##    <chr>   <chr>              <dbl>         <dbl>             <dbl>       <dbl>
##  1 Adelie  Torgersen           39.1          18.7               181        3750
##  2 Adelie  Torgersen           39.5          17.4               186        3800
##  3 Adelie  Torgersen           40.3          18                 195        3250
##  4 Adelie  Torgersen           36.7          19.3               193        3450
##  5 Adelie  Torgersen           39.3          20.6               190        3650
##  6 Adelie  Torgersen           38.9          17.8               181        3625
##  7 Adelie  Torgersen           39.2          19.6               195        4675
##  8 Adelie  Torgersen           34.1          18.1               193        3475
##  9 Adelie  Torgersen           42            20.2               190        4250
## 10 Adelie  Torgersen           37.8          17.1               186        3300
## # ℹ 41 more rows
## # ℹ 2 more variables: sex <chr>, year <dbl>
```
---

### Filtrando linhas: &nbsp; `filter()`

Você também pode fazer **operações diretamente dentro do `filter()`**, comparando os valores das colunas com cálculos feitos na hora.

No exemplo abaixo, o código retorna apenas os pinguins cuja **massa corporal** é **maior que a média da base**:

``` r
pinguins |> 
  filter(body_mass_g > mean(body_mass_g, na.rm = TRUE))
```

```
## # A tibble: 149 × 8
##    species island    bill_length_mm bill_depth_mm flipper_length_mm body_mass_g
##    <chr>   <chr>              <dbl>         <dbl>             <dbl>       <dbl>
##  1 Adelie  Torgersen           39.2          19.6               195        4675
##  2 Adelie  Torgersen           42            20.2               190        4250
##  3 Adelie  Torgersen           34.6          21.1               198        4400
##  4 Adelie  Torgersen           42.5          20.7               197        4500
##  5 Adelie  Dream               39.8          19.1               184        4650
##  6 Adelie  Dream               44.1          19.7               196        4400
##  7 Adelie  Dream               39.6          18.8               190        4600
##  8 Adelie  Biscoe              40.1          18.9               188        4300
##  9 Adelie  Biscoe              41.3          21.1               195        4400
## 10 Adelie  Torgersen           41.8          19.4               198        4450
## # ℹ 139 more rows
## # ℹ 2 more variables: sex <chr>, year <dbl>
```
…
